kse.framework.library package
=============================

Submodules
----------

kse.framework.library.collection module
---------------------------------------

.. automodule:: kse.framework.library.collection
   :members:
   :undoc-members:
   :show-inheritance:

kse.framework.library.config module
-----------------------------------

.. automodule:: kse.framework.library.config
   :members:
   :undoc-members:
   :show-inheritance:

kse.framework.library.constant module
-------------------------------------

.. automodule:: kse.framework.library.constant
   :members:
   :undoc-members:
   :show-inheritance:

kse.framework.library.factory module
------------------------------------

.. automodule:: kse.framework.library.factory
   :members:
   :undoc-members:
   :show-inheritance:

kse.framework.library.file\_json module
---------------------------------------

.. automodule:: kse.framework.library.file_json
   :members:
   :undoc-members:
   :show-inheritance:

kse.framework.library.file\_util module
---------------------------------------

.. automodule:: kse.framework.library.file_util
   :members:
   :undoc-members:
   :show-inheritance:

kse.framework.library.instrument module
---------------------------------------

.. automodule:: kse.framework.library.instrument
   :members:
   :undoc-members:
   :show-inheritance:

kse.framework.library.log module
--------------------------------

.. automodule:: kse.framework.library.log
   :members:
   :undoc-members:
   :show-inheritance:

kse.framework.library.log\_3 module
-----------------------------------

.. automodule:: kse.framework.library.log_3
   :members:
   :undoc-members:
   :show-inheritance:

kse.framework.library.repl module
---------------------------------

.. automodule:: kse.framework.library.repl
   :members:
   :undoc-members:
   :show-inheritance:

kse.framework.library.schema module
-----------------------------------

.. automodule:: kse.framework.library.schema
   :members:
   :undoc-members:
   :show-inheritance:

kse.framework.library.trback module
-----------------------------------

.. automodule:: kse.framework.library.trback
   :members:
   :undoc-members:
   :show-inheritance:

kse.framework.library.util module
---------------------------------

.. automodule:: kse.framework.library.util
   :members:
   :undoc-members:
   :show-inheritance:


Module contents
---------------

.. automodule:: kse.framework.library
   :members:
   :undoc-members:
   :show-inheritance:
